\relax 
\@writefile{toc}{\contentsline {section}{\numberline {1}Introduction}{1}}
\@writefile{toc}{\contentsline {subsection}{\numberline {1.1}Title of first subsection}{1}}
\newlabel{fig:1}{{1}{2}}
\@writefile{lof}{\contentsline {figure}{\numberline {1}{\ignorespaces Lorem Ipsum is simply dummy text of the printing and typesetting industry.}}{2}}
\newlabel{tab:1}{{1}{2}}
\@writefile{lot}{\contentsline {table}{\numberline {1}{\ignorespaces Lorem Ipsum is simply dummy text of the printing and typesetting industry.}}{2}}
\@writefile{toc}{\contentsline {subsubsection}{\numberline {1.1.1}Title of first subsubsection}{2}}
\@writefile{toc}{\contentsline {section}{\numberline {2}Figure, table, equation}{2}}
\@writefile{toc}{\contentsline {section}{\numberline {A}First appendix}{3}}
