\contentsline {section}{\numberline {1}Introduction}{1}
\contentsline {subsection}{\numberline {1.1}Title of first subsection}{1}
\contentsline {subsubsection}{\numberline {1.1.1}Title of first subsubsection}{2}
\contentsline {section}{\numberline {2}Figure, table, equation}{2}
\contentsline {section}{\numberline {A}First appendix}{3}
