\relax 
\providecommand\hyper@newdestlabel[2]{}
\providecommand\HyperFirstAtBeginDocument{\AtBeginDocument}
\HyperFirstAtBeginDocument{\ifx\hyper@anchor\@undefined
\global\let\oldcontentsline\contentsline
\gdef\contentsline#1#2#3#4{\oldcontentsline{#1}{#2}{#3}}
\global\let\oldnewlabel\newlabel
\gdef\newlabel#1#2{\newlabelxx{#1}#2}
\gdef\newlabelxx#1#2#3#4#5#6{\oldnewlabel{#1}{{#2}{#3}}}
\AtEndDocument{\ifx\hyper@anchor\@undefined
\let\contentsline\oldcontentsline
\let\newlabel\oldnewlabel
\fi}
\fi}
\global\let\hyper@last\relax 
\gdef\HyperFirstAtBeginDocument#1{#1}
\providecommand\HyField@AuxAddToFields[1]{}
\providecommand\HyField@AuxAddToCoFields[2]{}
\@writefile{toc}{\contentsline {section}{\numberline {1}Introduction}{1}{section.1}}
\newlabel{tab:1}{{1}{1}{Introduction}{figure.1}{}}
\@writefile{lot}{\contentsline {table}{\numberline {1}{\ignorespaces Lorem Ipsum is simply dummy text of the printing and typesetting industry.}}{1}{table.1}}
\newlabel{fig:1}{{1}{2}{Introduction}{section.1}{}}
\@writefile{lof}{\contentsline {figure}{\numberline {1}{\ignorespaces Lorem Ipsum is simply dummy text of the printing and typesetting industry.}}{2}{figure.1}}
\@writefile{toc}{\contentsline {subsection}{\numberline {1.1}Title of first subsection}{2}{subsection.1.1}}
\@writefile{toc}{\contentsline {subsubsection}{\numberline {1.1.1}Title of first subsubsection}{2}{subsubsection.1.1.1}}
\@writefile{toc}{\contentsline {paragraph}{Title of paragraph.}{2}{section*.4}}
\@writefile{toc}{\contentsline {section}{\numberline {2}Figure, table, equation}{2}{section.2}}
\@writefile{toc}{\contentsline {section}{\numberline {A}First appendix}{2}{appendix.A}}
