\contentsline {section}{\numberline {1}Introduction}{1}{section.1}
\contentsline {subsection}{\numberline {1.1}Title of first subsection}{2}{subsection.1.1}
\contentsline {subsubsection}{\numberline {1.1.1}Title of first subsubsection}{2}{subsubsection.1.1.1}
\contentsline {paragraph}{Title of paragraph.}{2}{section*.4}
\contentsline {section}{\numberline {2}Figure, table, equation}{2}{section.2}
\contentsline {section}{\numberline {A}First appendix}{2}{appendix.A}
