\relax 
\providecommand\hyper@newdestlabel[2]{}
\providecommand\HyperFirstAtBeginDocument{\AtBeginDocument}
\HyperFirstAtBeginDocument{\ifx\hyper@anchor\@undefined
\global\let\oldcontentsline\contentsline
\gdef\contentsline#1#2#3#4{\oldcontentsline{#1}{#2}{#3}}
\global\let\oldnewlabel\newlabel
\gdef\newlabel#1#2{\newlabelxx{#1}#2}
\gdef\newlabelxx#1#2#3#4#5#6{\oldnewlabel{#1}{{#2}{#3}}}
\AtEndDocument{\ifx\hyper@anchor\@undefined
\let\contentsline\oldcontentsline
\let\newlabel\oldnewlabel
\fi}
\fi}
\global\let\hyper@last\relax 
\gdef\HyperFirstAtBeginDocument#1{#1}
\providecommand\HyField@AuxAddToFields[1]{}
\providecommand\HyField@AuxAddToCoFields[2]{}
\providecommand \oddpage@label [2]{}
\babel@aux{english}{}
\@writefile{nav}{\headcommand {\slideentry {0}{0}{1}{1/1}{}{0}}}
\@writefile{nav}{\headcommand {\beamer@framepages {1}{1}}}
\@writefile{nav}{\headcommand {\slideentry {0}{0}{2}{2/4}{}{0}}}
\@writefile{nav}{\headcommand {\beamer@framepages {2}{4}}}
\@writefile{toc}{\beamer@sectionintoc {1}{Introduction}{5}{0}{1}}
\@writefile{nav}{\headcommand {\beamer@sectionpages {1}{4}}}
\@writefile{nav}{\headcommand {\beamer@subsectionpages {1}{4}}}
\@writefile{nav}{\headcommand {\sectionentry {1}{Introduction}{5}{Introduction}{0}}}
\@writefile{toc}{\beamer@subsectionintoc {1}{1}{Concepts}{5}{0}{1}}
\@writefile{nav}{\headcommand {\beamer@subsectionpages {5}{4}}}
\@writefile{nav}{\headcommand {\beamer@subsectionentry {0}{1}{1}{5}{Idea of DP}}}
\@writefile{nav}{\headcommand {\slideentry {1}{1}{1}{5/5}{Idea of DP}{0}}}
\@writefile{nav}{\headcommand {\beamer@framepages {5}{5}}}
\@writefile{nav}{\headcommand {\slideentry {1}{1}{2}{6/8}{Idea of DP}{0}}}
\@writefile{nav}{\headcommand {\beamer@framepages {6}{8}}}
\@writefile{toc}{\beamer@subsectionintoc {1}{2}{Solution Strategy}{9}{0}{1}}
\@writefile{nav}{\headcommand {\beamer@subsectionpages {5}{8}}}
\@writefile{nav}{\headcommand {\beamer@subsectionentry {0}{1}{2}{9}{Solution Strategy}}}
\@writefile{nav}{\headcommand {\slideentry {1}{2}{1}{9/9}{Solution Strategy}{0}}}
\@writefile{nav}{\headcommand {\beamer@framepages {9}{9}}}
\@writefile{nav}{\headcommand {\slideentry {1}{2}{2}{10/12}{Solution Strategy}{0}}}
\@writefile{nav}{\headcommand {\beamer@framepages {10}{12}}}
\@writefile{toc}{\beamer@sectionintoc {2}{All-Pairs Shortest-Paths Problem}{13}{0}{2}}
\@writefile{nav}{\headcommand {\beamer@sectionpages {5}{12}}}
\@writefile{nav}{\headcommand {\beamer@subsectionpages {9}{12}}}
\@writefile{nav}{\headcommand {\sectionentry {2}{All-Pairs Shortest-Paths Problem}{13}{All-Pairs Shortest-Paths Problem}{0}}}
\@writefile{toc}{\beamer@subsectionintoc {2}{1}{Problem Statement}{13}{0}{2}}
\@writefile{nav}{\headcommand {\beamer@subsectionpages {13}{12}}}
\@writefile{nav}{\headcommand {\beamer@subsectionentry {0}{2}{1}{13}{Problem Statement}}}
\@writefile{nav}{\headcommand {\slideentry {2}{1}{1}{13/13}{Problem Statement}{0}}}
\@writefile{nav}{\headcommand {\beamer@framepages {13}{13}}}
\@writefile{nav}{\headcommand {\slideentry {2}{1}{2}{14/16}{Problem Statement}{0}}}
\@writefile{nav}{\headcommand {\beamer@framepages {14}{16}}}
\@writefile{toc}{\beamer@subsectionintoc {2}{2}{Solution Model}{17}{0}{2}}
\@writefile{nav}{\headcommand {\beamer@subsectionpages {13}{16}}}
\@writefile{nav}{\headcommand {\beamer@subsectionentry {0}{2}{2}{17}{Solution Model}}}
\@writefile{nav}{\headcommand {\slideentry {2}{2}{1}{17/17}{Solution Model}{0}}}
\@writefile{nav}{\headcommand {\beamer@framepages {17}{17}}}
\@writefile{nav}{\headcommand {\slideentry {2}{2}{2}{18/20}{Solution Model}{0}}}
\@writefile{nav}{\headcommand {\beamer@framepages {18}{20}}}
\@writefile{nav}{\headcommand {\slideentry {2}{2}{3}{21/21}{Solution Model}{0}}}
\@writefile{nav}{\headcommand {\beamer@framepages {21}{21}}}
\@writefile{toc}{\beamer@subsectionintoc {2}{3}{Algorithm}{22}{0}{2}}
\@writefile{nav}{\headcommand {\beamer@subsectionpages {17}{21}}}
\@writefile{nav}{\headcommand {\beamer@subsectionentry {0}{2}{3}{22}{Algorithm}}}
\@writefile{nav}{\headcommand {\slideentry {2}{3}{1}{22/22}{Algorithm}{0}}}
\@writefile{nav}{\headcommand {\beamer@framepages {22}{22}}}
\@writefile{loa}{\contentsline {algocf}{\numberline {1}{\ignorespaces Floyd(W [1..n, 1..n])}}}
\@writefile{nav}{\headcommand {\slideentry {2}{3}{2}{23/23}{Algorithm}{0}}}
\@writefile{nav}{\headcommand {\beamer@framepages {23}{23}}}
\@writefile{toc}{\beamer@subsectionintoc {2}{4}{Analysis}{24}{0}{2}}
\@writefile{nav}{\headcommand {\beamer@subsectionpages {22}{23}}}
\@writefile{nav}{\headcommand {\beamer@subsectionentry {0}{2}{4}{24}{Analysis}}}
\@writefile{nav}{\headcommand {\slideentry {2}{4}{1}{24/24}{Analysis}{0}}}
\@writefile{nav}{\headcommand {\beamer@framepages {24}{24}}}
\@writefile{nav}{\headcommand {\slideentry {2}{4}{2}{25/25}{Analysis}{0}}}
\@writefile{nav}{\headcommand {\beamer@framepages {25}{25}}}
\@writefile{toc}{\beamer@subsectionintoc {2}{5}{Example}{26}{0}{2}}
\@writefile{nav}{\headcommand {\beamer@subsectionpages {24}{25}}}
\@writefile{nav}{\headcommand {\beamer@subsectionentry {0}{2}{5}{26}{Example}}}
\@writefile{nav}{\headcommand {\slideentry {2}{5}{1}{26/26}{Example}{0}}}
\@writefile{nav}{\headcommand {\beamer@framepages {26}{26}}}
\@writefile{nav}{\headcommand {\slideentry {2}{5}{2}{27/34}{Example}{0}}}
\@writefile{nav}{\headcommand {\beamer@framepages {27}{34}}}
\@writefile{nav}{\headcommand {\slideentry {2}{5}{3}{35/42}{Example}{0}}}
\@writefile{nav}{\headcommand {\beamer@framepages {35}{42}}}
\@writefile{toc}{\beamer@sectionintoc {3}{Other Beamer Features}{43}{0}{3}}
\@writefile{nav}{\headcommand {\beamer@sectionpages {13}{42}}}
\@writefile{nav}{\headcommand {\beamer@subsectionpages {26}{42}}}
\@writefile{nav}{\headcommand {\sectionentry {3}{Other Beamer Features}{43}{Other Beamer Features}{0}}}
\@writefile{toc}{\beamer@subsectionintoc {3}{1}{Flowchart}{43}{0}{3}}
\@writefile{nav}{\headcommand {\beamer@subsectionpages {43}{42}}}
\@writefile{nav}{\headcommand {\beamer@subsectionentry {0}{3}{1}{43}{Flowchart}}}
\@writefile{nav}{\headcommand {\slideentry {3}{1}{1}{43/43}{Flowchart}{0}}}
\@writefile{nav}{\headcommand {\beamer@framepages {43}{43}}}
\@writefile{nav}{\headcommand {\slideentry {3}{1}{2}{44/44}{Flowchart}{0}}}
\@writefile{nav}{\headcommand {\beamer@framepages {44}{44}}}
\@writefile{nav}{\headcommand {\slideentry {3}{1}{3}{45/45}{Flowchart}{0}}}
\@writefile{nav}{\headcommand {\beamer@framepages {45}{45}}}
\@writefile{toc}{\beamer@subsectionintoc {3}{2}{Bubble Diagram}{46}{0}{3}}
\@writefile{nav}{\headcommand {\beamer@subsectionpages {43}{45}}}
\@writefile{nav}{\headcommand {\beamer@subsectionentry {0}{3}{2}{46}{Bubble Diagram}}}
\@writefile{nav}{\headcommand {\slideentry {3}{2}{1}{46/46}{Bubble Diagram}{0}}}
\@writefile{nav}{\headcommand {\beamer@framepages {46}{46}}}
\@writefile{nav}{\headcommand {\slideentry {3}{2}{2}{47/47}{Bubble Diagram}{0}}}
\@writefile{nav}{\headcommand {\beamer@framepages {47}{47}}}
\@writefile{toc}{\beamer@subsectionintoc {3}{3}{Animation}{48}{0}{3}}
\@writefile{nav}{\headcommand {\beamer@subsectionpages {46}{47}}}
\@writefile{nav}{\headcommand {\beamer@subsectionentry {0}{3}{3}{48}{Animation}}}
\@writefile{nav}{\headcommand {\slideentry {3}{3}{1}{48/48}{Animation}{0}}}
\@writefile{nav}{\headcommand {\beamer@framepages {48}{48}}}
\@writefile{nav}{\headcommand {\slideentry {3}{3}{2}{49/55}{Animation}{0}}}
\@writefile{nav}{\headcommand {\beamer@framepages {49}{55}}}
\@writefile{nav}{\headcommand {\beamer@sectionpages {43}{55}}}
\@writefile{nav}{\headcommand {\beamer@subsectionpages {48}{55}}}
\@writefile{nav}{\headcommand {\sectionentry {4}{Thank You}{56}{Thank You}{0}}}
\@writefile{nav}{\headcommand {\slideentry {4}{0}{1}{56/56}{}{0}}}
\@writefile{nav}{\headcommand {\beamer@framepages {56}{56}}}
\@writefile{nav}{\headcommand {\beamer@partpages {1}{56}}}
\@writefile{nav}{\headcommand {\beamer@subsectionpages {56}{56}}}
\@writefile{nav}{\headcommand {\beamer@sectionpages {56}{56}}}
\@writefile{nav}{\headcommand {\beamer@documentpages {56}}}
\@writefile{nav}{\headcommand {\gdef \inserttotalframenumber {26}}}
