\babel@toc {english}{}
\beamer@sectionintoc {1}{Introduction}{5}{0}{1}
\beamer@subsectionintoc {1}{1}{Concepts}{5}{0}{1}
\beamer@subsectionintoc {1}{2}{Solution Strategy}{9}{0}{1}
\beamer@sectionintoc {2}{All-Pairs Shortest-Paths Problem}{13}{0}{2}
\beamer@subsectionintoc {2}{1}{Problem Statement}{13}{0}{2}
\beamer@subsectionintoc {2}{2}{Solution Model}{17}{0}{2}
\beamer@subsectionintoc {2}{3}{Algorithm}{22}{0}{2}
\beamer@subsectionintoc {2}{4}{Analysis}{24}{0}{2}
\beamer@subsectionintoc {2}{5}{Example}{26}{0}{2}
\beamer@sectionintoc {3}{Other Beamer Features}{43}{0}{3}
\beamer@subsectionintoc {3}{1}{Flowchart}{43}{0}{3}
\beamer@subsectionintoc {3}{2}{Bubble Diagram}{46}{0}{3}
\beamer@subsectionintoc {3}{3}{Animation}{48}{0}{3}
