\beamer@sectionintoc {1}{Introduction}{4}{0}{1}
\beamer@subsectionintoc {1}{1}{A subsection}{4}{0}{1}
\beamer@subsectionintoc {1}{2}{Another subsection}{6}{0}{1}
\beamer@sectionintoc {2}{Summary}{10}{0}{2}
